%YAML 1.1
%TAG !u! tag:unity3d.com,2011:
--- !u!74 &7400000
AnimationClip:
  m_ObjectHideFlags: 0
  m_CorrespondingSourceObject: {fileID: 0}
  m_PrefabInstance: {fileID: 0}
  m_PrefabAsset: {fileID: 0}
  m_Name: Death
  serializedVersion: 6
  m_Legacy: 0
  m_Compressed: 0
  m_UseHighQualityCurve: 1
  m_RotationCurves: []
  m_CompressedRotationCurves: []
  m_EulerCurves: []
  m_PositionCurves: []
  m_ScaleCurves: []
  m_FloatCurves: []
  m_PPtrCurves:
  - curve:
    - time: 0
      value: {fileID: 21300000, guid: 8218b5ed3f12feb4ab271f7c12f5c992, type: 3}
    - time: 0.083333336
      value: {fileID: 21300000, guid: cbf198e8c3d718c4ca6743a58ded93db, type: 3}
    - time: 0.15
      value: {fileID: 21300000, guid: cd07fd95eb31b7541afe86571022dd67, type: 3}
    - time: 0.23333333
      value: {fileID: 21300000, guid: 94318a4448137be48a25aee9ecfa0df1, type: 3}
    - time: 0.3
      value: {fileID: 21300000, guid: 6eb820341eb66ff428e633c66443fe1d, type: 3}
    - time: 0.4
      value: {fileID: 21300000, guid: 4bd47c7caf4ac094da160123fbccd106, type: 3}
    - time: 0.46666667
      value: {fileID: 21300000, guid: deb115e7b64be4841b6489da057c2a9e, type: 3}
    - time: 0.56666666
      value: {fileID: 21300000, guid: 566906c799c31ed4ab755698e40c418b, type: 3}
    - time: 0.6166667
      value: {fileID: 21300000, guid: 12d6092df9abf974bb4ab121b0a51848, type: 3}
    - time: 0.71666664
      value: {fileID: 21300000, guid: f7bcfdeffcedda742a82be270dd225fe, type: 3}
    - time: 0.76666665
      value: {fileID: 21300000, guid: 04693da40815a5647bbb9b3d86ddd3a3, type: 3}
    - time: 0.8666667
      value: {fileID: 21300000, guid: 26327047d04ba174da4124d2aaf36ba3, type: 3}
    - time: 0.93333334
      value: {fileID: 21300000, guid: 7915703e528bb8b4190654b5018b7caf, type: 3}
    - time: 1.0166667
      value: {fileID: 21300000, guid: e79543abe106240459aed413068072a7, type: 3}
    - time: 1.1
      value: {fileID: 21300000, guid: 63239e8716ced554d9015b58d8817bc0, type: 3}
    - time: 1.1833333
      value: {fileID: 21300000, guid: 836d2b210e8178d4f9227eba5cc67835, type: 3}
    - time: 1.25
      value: {fileID: 21300000, guid: 3d032ee807b851d469e6baa76bfbc4ec, type: 3}
    - time: 1.3333334
      value: {fileID: 21300000, guid: 3c9d14c9e6998304baa85f006045f556, type: 3}
    attribute: m_Sprite
    path: 
    classID: 212
    script: {fileID: 0}
  m_SampleRate: 60
  m_WrapMode: 0
  m_Bounds:
    m_Center: {x: 0, y: 0, z: 0}
    m_Extent: {x: 0, y: 0, z: 0}
  m_ClipBindingConstant:
    genericBindings:
    - serializedVersion: 2
      path: 0
      attribute: 0
      script: {fileID: 0}
      typeID: 212
      customType: 23
      isPPtrCurve: 1
    pptrCurveMapping:
    - {fileID: 21300000, guid: 8218b5ed3f12feb4ab271f7c12f5c992, type: 3}
    - {fileID: 21300000, guid: cbf198e8c3d718c4ca6743a58ded93db, type: 3}
    - {fileID: 21300000, guid: cd07fd95eb31b7541afe86571022dd67, type: 3}
    - {fileID: 21300000, guid: 94318a4448137be48a25aee9ecfa0df1, type: 3}
    - {fileID: 21300000, guid: 6eb820341eb66ff428e633c66443fe1d, type: 3}
    - {fileID: 21300000, guid: 4bd47c7caf4ac094da160123fbccd106, type: 3}
    - {fileID: 21300000, guid: deb115e7b64be4841b6489da057c2a9e, type: 3}
    - {fileID: 21300000, guid: 566906c799c31ed4ab755698e40c418b, type: 3}
    - {fileID: 21300000, guid: 12d6092df9abf974bb4ab121b0a51848, type: 3}
    - {fileID: 21300000, guid: f7bcfdeffcedda742a82be270dd225fe, type: 3}
    - {fileID: 21300000, guid: 04693da40815a5647bbb9b3d86ddd3a3, type: 3}
    - {fileID: 21300000, guid: 26327047d04ba174da4124d2aaf36ba3, type: 3}
    - {fileID: 21300000, guid: 7915703e528bb8b4190654b5018b7caf, type: 3}
    - {fileID: 21300000, guid: e79543abe106240459aed413068072a7, type: 3}
    - {fileID: 21300000, guid: 63239e8716ced554d9015b58d8817bc0, type: 3}
    - {fileID: 21300000, guid: 836d2b210e8178d4f9227eba5cc67835, type: 3}
    - {fileID: 21300000, guid: 3d032ee807b851d469e6baa76bfbc4ec, type: 3}
    - {fileID: 21300000, guid: 3c9d14c9e6998304baa85f006045f556, type: 3}
  m_AnimationClipSettings:
    serializedVersion: 2
    m_AdditiveReferencePoseClip: {fileID: 0}
    m_AdditiveReferencePoseTime: 0
    m_StartTime: 0
    m_StopTime: 1.35
    m_OrientationOffsetY: 0
    m_Level: 0
    m_CycleOffset: 0
    m_HasAdditiveReferencePose: 0
    m_LoopTime: 0
    m_LoopBlend: 0
    m_LoopBlendOrientation: 0
    m_LoopBlendPositionY: 0
    m_LoopBlendPositionXZ: 0
    m_KeepOriginalOrientation: 0
    m_KeepOriginalPositionY: 1
    m_KeepOriginalPositionXZ: 0
    m_HeightFromFeet: 0
    m_Mirror: 0
  m_EditorCurves: []
  m_EulerEditorCurves: []
  m_HasGenericRootTransform: 0
  m_HasMotionFloatCurves: 0
  m_Events: []
