%YAML 1.1
%TAG !u! tag:unity3d.com,2011:
--- !u!74 &7400000
AnimationClip:
  m_ObjectHideFlags: 0
  m_CorrespondingSourceObject: {fileID: 0}
  m_PrefabInstance: {fileID: 0}
  m_PrefabAsset: {fileID: 0}
  m_Name: Hit_Back
  serializedVersion: 6
  m_Legacy: 0
  m_Compressed: 0
  m_UseHighQualityCurve: 1
  m_RotationCurves: []
  m_CompressedRotationCurves: []
  m_EulerCurves: []
  m_PositionCurves: []
  m_ScaleCurves: []
  m_FloatCurves: []
  m_PPtrCurves:
  - curve:
    - time: 0
      value: {fileID: 21300000, guid: 2eb8dd3e364341f498e2fc77bf7b8c56, type: 3}
    - time: 0.06666667
      value: {fileID: 21300000, guid: ae1cb06b48aaad8469b5bff5d522e93a, type: 3}
    - time: 0.13333334
      value: {fileID: 21300000, guid: d9224de0425f46c47980078a10d1f4ea, type: 3}
    - time: 0.2
      value: {fileID: 21300000, guid: 4ff43a75a2874bc4ea58e0cc6ad2c4fc, type: 3}
    - time: 0.26666668
      value: {fileID: 21300000, guid: 5f7e59b71464c67408b08e143752853b, type: 3}
    - time: 0.33333334
      value: {fileID: 21300000, guid: 5af5744ad14b6964db09f8b6857bba11, type: 3}
    - time: 0.4
      value: {fileID: 21300000, guid: c722819555317f24aa38395a04117880, type: 3}
    - time: 0.46666667
      value: {fileID: 21300000, guid: 4ff659c0662ad10449b50303b6127913, type: 3}
    - time: 0.53333336
      value: {fileID: 21300000, guid: cb0cc48dbb2518a47b419a10e2ab0cab, type: 3}
    - time: 0.6
      value: {fileID: 21300000, guid: dec2214040a70ad499a22da8ace5eae3, type: 3}
    - time: 0.6666667
      value: {fileID: 21300000, guid: d04ee2bfb8e5ffc409437bd173614e3e, type: 3}
    attribute: m_Sprite
    path: 
    classID: 212
    script: {fileID: 0}
  m_SampleRate: 60
  m_WrapMode: 0
  m_Bounds:
    m_Center: {x: 0, y: 0, z: 0}
    m_Extent: {x: 0, y: 0, z: 0}
  m_ClipBindingConstant:
    genericBindings:
    - serializedVersion: 2
      path: 0
      attribute: 0
      script: {fileID: 0}
      typeID: 212
      customType: 23
      isPPtrCurve: 1
    pptrCurveMapping:
    - {fileID: 21300000, guid: 2eb8dd3e364341f498e2fc77bf7b8c56, type: 3}
    - {fileID: 21300000, guid: ae1cb06b48aaad8469b5bff5d522e93a, type: 3}
    - {fileID: 21300000, guid: d9224de0425f46c47980078a10d1f4ea, type: 3}
    - {fileID: 21300000, guid: 4ff43a75a2874bc4ea58e0cc6ad2c4fc, type: 3}
    - {fileID: 21300000, guid: 5f7e59b71464c67408b08e143752853b, type: 3}
    - {fileID: 21300000, guid: 5af5744ad14b6964db09f8b6857bba11, type: 3}
    - {fileID: 21300000, guid: c722819555317f24aa38395a04117880, type: 3}
    - {fileID: 21300000, guid: 4ff659c0662ad10449b50303b6127913, type: 3}
    - {fileID: 21300000, guid: cb0cc48dbb2518a47b419a10e2ab0cab, type: 3}
    - {fileID: 21300000, guid: dec2214040a70ad499a22da8ace5eae3, type: 3}
    - {fileID: 21300000, guid: d04ee2bfb8e5ffc409437bd173614e3e, type: 3}
  m_AnimationClipSettings:
    serializedVersion: 2
    m_AdditiveReferencePoseClip: {fileID: 0}
    m_AdditiveReferencePoseTime: 0
    m_StartTime: 0
    m_StopTime: 0.68333334
    m_OrientationOffsetY: 0
    m_Level: 0
    m_CycleOffset: 0
    m_HasAdditiveReferencePose: 0
    m_LoopTime: 0
    m_LoopBlend: 0
    m_LoopBlendOrientation: 0
    m_LoopBlendPositionY: 0
    m_LoopBlendPositionXZ: 0
    m_KeepOriginalOrientation: 0
    m_KeepOriginalPositionY: 1
    m_KeepOriginalPositionXZ: 0
    m_HeightFromFeet: 0
    m_Mirror: 0
  m_EditorCurves: []
  m_EulerEditorCurves: []
  m_HasGenericRootTransform: 0
  m_HasMotionFloatCurves: 0
  m_Events: []
