%YAML 1.1
%TAG !u! tag:unity3d.com,2011:
--- !u!74 &7400000
AnimationClip:
  m_ObjectHideFlags: 0
  m_CorrespondingSourceObject: {fileID: 0}
  m_PrefabInstance: {fileID: 0}
  m_PrefabAsset: {fileID: 0}
  m_Name: Run_Right
  serializedVersion: 6
  m_Legacy: 0
  m_Compressed: 0
  m_UseHighQualityCurve: 1
  m_RotationCurves: []
  m_CompressedRotationCurves: []
  m_EulerCurves: []
  m_PositionCurves: []
  m_ScaleCurves: []
  m_FloatCurves: []
  m_PPtrCurves:
  - curve:
    - time: 0
      value: {fileID: 21300000, guid: 7bdaa9dd6df7ce344ad2e3653ed6705f, type: 3}
    - time: 0.06666667
      value: {fileID: 21300000, guid: 141d77617895985458a1b125afa6b3d7, type: 3}
    - time: 0.13333334
      value: {fileID: 21300000, guid: d2ee114924cf3a341ae0d2ed889d75f9, type: 3}
    - time: 0.2
      value: {fileID: 21300000, guid: 57c099c8844c3cc4383fb2619ce32db2, type: 3}
    - time: 0.26666668
      value: {fileID: 21300000, guid: 41fd8fbd955d1a246a404add32831050, type: 3}
    - time: 0.33333334
      value: {fileID: 21300000, guid: 15dbc3d9404046c488f2fa992aee3948, type: 3}
    - time: 0.4
      value: {fileID: 21300000, guid: bdaad8d343e89af45aee17f87a36b356, type: 3}
    - time: 0.46666667
      value: {fileID: 21300000, guid: 76ccc4773cf15bb47a0795fe63fbca1f, type: 3}
    - time: 0.53333336
      value: {fileID: 21300000, guid: a304a116ec558274ca28fde665fdc259, type: 3}
    - time: 0.6
      value: {fileID: 21300000, guid: 351ff5b25b08e534f9ad3cf0821d46b1, type: 3}
    - time: 0.6666667
      value: {fileID: 21300000, guid: e907bd3b8a5ca2547be68eb93425cd80, type: 3}
    attribute: m_Sprite
    path: 
    classID: 212
    script: {fileID: 0}
  m_SampleRate: 60
  m_WrapMode: 0
  m_Bounds:
    m_Center: {x: 0, y: 0, z: 0}
    m_Extent: {x: 0, y: 0, z: 0}
  m_ClipBindingConstant:
    genericBindings:
    - serializedVersion: 2
      path: 0
      attribute: 0
      script: {fileID: 0}
      typeID: 212
      customType: 23
      isPPtrCurve: 1
    pptrCurveMapping:
    - {fileID: 21300000, guid: 7bdaa9dd6df7ce344ad2e3653ed6705f, type: 3}
    - {fileID: 21300000, guid: 141d77617895985458a1b125afa6b3d7, type: 3}
    - {fileID: 21300000, guid: d2ee114924cf3a341ae0d2ed889d75f9, type: 3}
    - {fileID: 21300000, guid: 57c099c8844c3cc4383fb2619ce32db2, type: 3}
    - {fileID: 21300000, guid: 41fd8fbd955d1a246a404add32831050, type: 3}
    - {fileID: 21300000, guid: 15dbc3d9404046c488f2fa992aee3948, type: 3}
    - {fileID: 21300000, guid: bdaad8d343e89af45aee17f87a36b356, type: 3}
    - {fileID: 21300000, guid: 76ccc4773cf15bb47a0795fe63fbca1f, type: 3}
    - {fileID: 21300000, guid: a304a116ec558274ca28fde665fdc259, type: 3}
    - {fileID: 21300000, guid: 351ff5b25b08e534f9ad3cf0821d46b1, type: 3}
    - {fileID: 21300000, guid: e907bd3b8a5ca2547be68eb93425cd80, type: 3}
  m_AnimationClipSettings:
    serializedVersion: 2
    m_AdditiveReferencePoseClip: {fileID: 0}
    m_AdditiveReferencePoseTime: 0
    m_StartTime: 0
    m_StopTime: 0.68333334
    m_OrientationOffsetY: 0
    m_Level: 0
    m_CycleOffset: 0
    m_HasAdditiveReferencePose: 0
    m_LoopTime: 1
    m_LoopBlend: 0
    m_LoopBlendOrientation: 0
    m_LoopBlendPositionY: 0
    m_LoopBlendPositionXZ: 0
    m_KeepOriginalOrientation: 0
    m_KeepOriginalPositionY: 1
    m_KeepOriginalPositionXZ: 0
    m_HeightFromFeet: 0
    m_Mirror: 0
  m_EditorCurves: []
  m_EulerEditorCurves: []
  m_HasGenericRootTransform: 0
  m_HasMotionFloatCurves: 0
  m_Events: []
