%YAML 1.1
%TAG !u! tag:unity3d.com,2011:
--- !u!74 &7400000
AnimationClip:
  m_ObjectHideFlags: 0
  m_CorrespondingSourceObject: {fileID: 0}
  m_PrefabInstance: {fileID: 0}
  m_PrefabAsset: {fileID: 0}
  m_Name: Ranged Enemy Animation
  serializedVersion: 6
  m_Legacy: 0
  m_Compressed: 0
  m_UseHighQualityCurve: 1
  m_RotationCurves: []
  m_CompressedRotationCurves: []
  m_EulerCurves: []
  m_PositionCurves: []
  m_ScaleCurves: []
  m_FloatCurves: []
  m_PPtrCurves:
  - curve:
    - time: 0
      value: {fileID: 21300000, guid: ccb62ddb00073de4fb3ef651b0458b56, type: 3}
    - time: 0.11666667
      value: {fileID: 21300000, guid: 184343e891b2f884384d008dc042c337, type: 3}
    - time: 0.21666667
      value: {fileID: 21300000, guid: 771a291871743bd4789aafa7feaf7f3d, type: 3}
    - time: 0.33333334
      value: {fileID: 21300000, guid: d2cf5ba89d002d54bab8ca2bacefff8f, type: 3}
    - time: 0.45
      value: {fileID: 21300000, guid: c5bc3a18fd6ec184ca7dabb1ca6318e7, type: 3}
    - time: 0.55
      value: {fileID: 21300000, guid: ec894c82c16dc274381abbe0e9fb3c75, type: 3}
    - time: 0.65
      value: {fileID: 21300000, guid: c2e8f6de23d68fc4198ba6bcc01ccfcb, type: 3}
    - time: 0.75
      value: {fileID: 21300000, guid: 771a291871743bd4789aafa7feaf7f3d, type: 3}
    attribute: m_Sprite
    path: 
    classID: 212
    script: {fileID: 0}
  m_SampleRate: 60
  m_WrapMode: 0
  m_Bounds:
    m_Center: {x: 0, y: 0, z: 0}
    m_Extent: {x: 0, y: 0, z: 0}
  m_ClipBindingConstant:
    genericBindings:
    - serializedVersion: 2
      path: 0
      attribute: 0
      script: {fileID: 0}
      typeID: 212
      customType: 23
      isPPtrCurve: 1
    pptrCurveMapping:
    - {fileID: 21300000, guid: ccb62ddb00073de4fb3ef651b0458b56, type: 3}
    - {fileID: 21300000, guid: 184343e891b2f884384d008dc042c337, type: 3}
    - {fileID: 21300000, guid: 771a291871743bd4789aafa7feaf7f3d, type: 3}
    - {fileID: 21300000, guid: d2cf5ba89d002d54bab8ca2bacefff8f, type: 3}
    - {fileID: 21300000, guid: c5bc3a18fd6ec184ca7dabb1ca6318e7, type: 3}
    - {fileID: 21300000, guid: ec894c82c16dc274381abbe0e9fb3c75, type: 3}
    - {fileID: 21300000, guid: c2e8f6de23d68fc4198ba6bcc01ccfcb, type: 3}
    - {fileID: 21300000, guid: 771a291871743bd4789aafa7feaf7f3d, type: 3}
  m_AnimationClipSettings:
    serializedVersion: 2
    m_AdditiveReferencePoseClip: {fileID: 0}
    m_AdditiveReferencePoseTime: 0
    m_StartTime: 0
    m_StopTime: 0.76666665
    m_OrientationOffsetY: 0
    m_Level: 0
    m_CycleOffset: 0
    m_HasAdditiveReferencePose: 0
    m_LoopTime: 1
    m_LoopBlend: 0
    m_LoopBlendOrientation: 0
    m_LoopBlendPositionY: 0
    m_LoopBlendPositionXZ: 0
    m_KeepOriginalOrientation: 0
    m_KeepOriginalPositionY: 1
    m_KeepOriginalPositionXZ: 0
    m_HeightFromFeet: 0
    m_Mirror: 0
  m_EditorCurves: []
  m_EulerEditorCurves: []
  m_HasGenericRootTransform: 0
  m_HasMotionFloatCurves: 0
  m_Events: []
